…
``` r
cv_df %>% pull(train) %>% .[[1]] %>% as_tibble #get the first training dataset
```

    ## # A tibble: 79 × 3
    ##       id     x      y
    ##    <int> <dbl>  <dbl>
    ##  1     3 0.835 -1.43 
    ##  2     4 0.109  0.122
    ##  3     5 0.964 -3.33 
    ##  4     6 0.912 -2.49 
    ##  5     7 0.219  0.674
    ##  6     8 0.206  1.05 
    ##  7     9 0.534  0.869
    ##  8    10 0.284  1.03 
    ##  9    11 0.669 -0.420
    ## 10    12 0.719 -0.925
    ## # … with 69 more rows
…
